<svg xmlns:xlink="http://www.w3.org/1999/xlink" xmlns="http://www.w3.org/2000/svg" aria-label="biểu tượng google nhiều màu" class="AssemblyIcon AssemblyIcon--medium" role="img" width="24"  height="24" ><defs><symbol fill="none" id="google-color" viewBox="0 0 24 24">
    <path fill-rule="evenodd" clip-rule="evenodd" d="M6.18605 12.0001C6.18605 11.3505 6.29628 10.7278 6.49302 10.1437L3.0493 7.57007C2.37814 8.9037 2 10.4064 2 12.0001C2 13.5923 2.37767 15.0942 3.04791 16.4269L6.48977 13.8483C6.29488 13.2669 6.18605 12.6464 6.18605 12.0001Z" fill="#FBBC05"></path>
    <path fill-rule="evenodd" clip-rule="evenodd" d="M12.2326 6.09091C13.6744 6.09091 14.9768 6.59091 16 7.40909L18.9768 4.5C17.1628 2.95455 14.8372 2 12.2326 2C8.18885 2 4.7135 4.26318 3.04932 7.57L6.49304 10.1436C7.28653 7.78636 9.54839 6.09091 12.2326 6.09091Z" fill="#EA4335"></path>
    <path fill-rule="evenodd" clip-rule="evenodd" d="M12.2326 17.9092C9.54839 17.9092 7.28653 16.2137 6.49304 13.8564L3.04932 16.4296C4.7135 19.7369 8.18885 22.0001 12.2326 22.0001C14.7284 22.0001 17.1112 21.1328 18.8995 19.5078L15.6307 17.0346C14.7084 17.6033 13.547 17.9092 12.2326 17.9092Z" fill="#34A853"></path>
    <path fill-rule="evenodd" clip-rule="evenodd" d="M22.0001 11.9998C22.0001 11.4089 21.9071 10.7725 21.7676 10.1816H12.2327V14.0453H17.721C17.4466 15.3625 16.6996 16.3753 15.6308 17.0344L18.8996 19.5075C20.7782 17.8012 22.0001 15.2594 22.0001 11.9998Z" fill="#4285F4"></path>
</symbol></defs><noscript fill="#586380"></noscript><use xlink:href="#google-color" fill="#586380"></use><noscript fill="#586380"></noscript></svg>